…
    #Analyzing ridership data by user type, weekday, rideable type
    bikeshare_data %>% 
      mutate(weekday=wday(start_date, label = TRUE)) %>%          #created a new weekday column, as ordinal type
      group_by(member_casual, weekday, rideable_type) %>% 
      summarise(number_of_rides = n(), average_duration=mean(ride_length), total_duration=sum(ride_length)) %>% 
      arrange(member_casual, weekday)

    ## `summarise()` has grouped output by 'member_casual', 'weekday'. You can
    ## override using the `.groups` argument.

    ## # A tibble: 35 × 6
    ## # Groups:   member_casual, weekday [14]
    ##    member_casual weekday rideable_type number_of_rides average_duration total_…¹
    ##    <chr>         <ord>   <chr>                   <int>            <dbl>    <dbl>
    ##  1 casual        Sun     classic_bike           159574             31.6 5045266.
    ##  2 casual        Sun     docked_bike             36195            130.  4700490.
    ##  3 casual        Sun     electric_bike          196308             18.4 3618848.
    ##  4 casual        Mon     classic_bike           105063             29.2 3071361.
    ##  5 casual        Mon     docked_bike             22909            115.  2637649.
    ##  6 casual        Mon     electric_bike          152473             16.3 2489701.
    ##  7 casual        Tue     classic_bike            96233             27.3 2624784.
    ##  8 casual        Tue     docked_bike             17866            115.  2046781.
    ##  9 casual        Tue     electric_bike          149929             14.6 2187716.
    ## 10 casual        Wed     classic_bike            99736             26.1 2606459.
    ## # … with 25 more rows, and abbreviated variable name ¹​total_duration

    #Analyzing ridership data by station name & user type
    bikeshare_data %>% 
      group_by(member_casual, start_station_name) %>% 
      drop_na(start_station_name) %>% 
      summarise(number_of_rides = n(), average_duration=mean(ride_length)) %>% 
      arrange(member_casual, number_of_rides)

    ## `summarise()` has grouped output by 'member_casual'. You can override using the
    ## `.groups` argument.

    ## # A tibble: 3,077 × 4
    ## # Groups:   member_casual [2]
    ##    member_casual start_station_name                  number_of_rides average_d…¹
    ##    <chr>         <chr>                                         <int>       <dbl>
    ##  1 casual        Ada St & 95th St                                  1       15.8 
    ##  2 casual        Ashland Ave & 73rd St                             1       30.8 
    ##  3 casual        Brandon Ave & 91st St                             1       17.2 
    ##  4 casual        Buffalo Ave & 133rd St                            1        3.95
    ##  5 casual        Canty Elementary School                           1       19.4 
    ##  6 casual        Central Park Ave & Fillmore St                    1       31.1 
    ##  7 casual        Chase Ave & Touhy Ave - NW                        1        4.95
    ##  8 casual        Christiana Ave & Bryn Mawr Ave                    1       14.6 
    ##  9 casual        Cicero Ave & Le Moyne St - midblock               1       33.4 
    ## 10 casual        City Rack - Albany Ave & 103rd St                 1       15.8 
    ## # … with 3,067 more rows, and abbreviated variable name ¹​average_duration
…
